<?xml version="1.0" encoding="UTF-8"?>
<svg width="14px" height="14px" viewBox="0 0 14 14" version="1.1" xmlns="http://www.w3.org/2000/svg" xmlns:xlink="http://www.w3.org/1999/xlink">
    <!-- Generator: Sketch 47.1 (45422) - http://www.bohemiancoding.com/sketch -->
    <title>Page 1</title>
    <desc>Created with Sketch.</desc>
    <defs></defs>
    <g id="Page-1" stroke="none" stroke-width="1" fill="none" fill-rule="evenodd">
        <g id="16-b-zpravy" transform="translate(-1422.000000, -1307.000000)" fill="#E43024">
            <g id="Group-4" transform="translate(1422.000000, 1304.000000)">
                <polygon id="Page-1" points="12.59 3 7 8.59 1.41 3 0 4.41 5.59 10 0 15.59 1.41 17 7 11.41 12.59 17 14 15.59 8.41 10 14 4.41"></polygon>
            </g>
        </g>
    </g>
</svg>