<?xml version="1.0" encoding="UTF-8"?>
<svg width="15px" height="14px" viewBox="0 0 15 14" version="1.1" xmlns="http://www.w3.org/2000/svg" xmlns:xlink="http://www.w3.org/1999/xlink">
    <!-- Generator: Sketch 47.1 (45422) - http://www.bohemiancoding.com/sketch -->
    <title>edit</title>
    <desc>Created with Sketch.</desc>
    <defs></defs>
    <g id="Symbols" stroke="none" stroke-width="1" fill="none" fill-rule="evenodd" font-size="18" font-family="MaterialIcons-Regular, Material Icons" font-weight="normal">
        <g id="box/-upozorneni" transform="translate(-914.000000, -43.000000)" fill="#E72E17">
            <g id="Group-8" transform="translate(891.000000, 25.000000)">
                <g id="Group">
                    <text id="edit">
                        <tspan x="21.5" y="34">edit</tspan>
                    </text>
                </g>
            </g>
        </g>
    </g>
</svg>