<?xml version="1.0" encoding="UTF-8"?>
<svg width="21px" height="19px" viewBox="0 0 21 19" version="1.1" xmlns="http://www.w3.org/2000/svg" xmlns:xlink="http://www.w3.org/1999/xlink">
    <!-- Generator: Sketch 47.1 (45422) - http://www.bohemiancoding.com/sketch -->
    <title>Page 1</title>
    <desc>Created with Sketch.</desc>
    <defs>
        <polygon id="path-1" points="10.02652 8 20.0528 8 20.0528 0.2064 0.00024 0.2064 0.00024 8 10.02652 8"></polygon>
    </defs>
    <g id="Page-1" stroke="none" stroke-width="1" fill="none" fill-rule="evenodd">
        <g id="17-uzivatelský-profil" transform="translate(-750.000000, -381.000000)">
            <g id="Page-1" transform="translate(750.000000, 381.000000)">
                <path d="M10.01672,9.91616 C9.08552,9.91616 8.17192,9.65216 7.36712,9.14016 C6.25032,8.43056 5.47592,7.32736 5.18872,6.03456 C4.90072,4.74256 5.13352,3.41616 5.84392,2.29856 C6.55432,1.18176 7.65752,0.40736 8.94952,0.12016 C10.24312,-0.16704 11.56952,0.06576 12.68552,0.77536 C13.80312,1.48576 14.57672,2.58896 14.86472,3.88096 C15.15192,5.17296 14.91912,6.50016 14.20872,7.61696 C13.49912,8.73456 12.39592,9.50816 11.10312,9.79616 C10.74232,9.87616 10.37832,9.91616 10.01672,9.91616" id="Fill-1" fill="#E43024"></path>
                <g id="Group-5" transform="translate(0.000000, 10.672800)">
                    <mask id="mask-2" fill="white">
                        <use xlink:href="#path-1"></use>
                    </mask>
                    <g id="Clip-4"></g>
                    <path d="M20.05304,9 L0.00024,9 L0.00024,7.3432 C0.00024,3.632 3.01944,1.2064 6.73064,1.2064 L13.32264,1.2064 C17.03384,1.2064 20.05304,3.632 20.05304,7.3432 L20.05304,9 Z" id="Fill-3" fill="#E43024" mask="url(#mask-2)"></path>
                </g>
            </g>
        </g>
    </g>
</svg>