<?xml version="1.0" encoding="UTF-8"?>
<svg width="21px" height="18px" viewBox="0 0 21 18" version="1.1" xmlns="http://www.w3.org/2000/svg" xmlns:xlink="http://www.w3.org/1999/xlink">
    <!-- Generator: Sketch 47.1 (45422) - http://www.bohemiancoding.com/sketch -->
    <title>Page 1</title>
    <desc>Created with Sketch.</desc>
    <defs></defs>
    <g id="Page-1" stroke="none" stroke-width="1" fill="none" fill-rule="evenodd">
        <g id="16-b-zpravy" transform="translate(-1067.000000, -1305.000000)" fill="#000000">
            <polygon id="Page-1" points="1067.01 1305 1067 1312 1082 1314 1067 1316 1067.01 1323 1088 1314"></polygon>
        </g>
    </g>
</svg>