[
  {"id":0,"name":"fghf","password":"1564","gsub":"","gemail":"","gemailVerified":"","gname":"","fbname":"","fbid":""},
  {"id":1,"name":"yrhgfd","password":"98765","gsub":"","gemail":"","gemailVerified":"","gname":"","fbname":"","fbid":""},
  {"id":2,"name":"asdsd","password":"9865","gsub":"","gemail":"","gemailVerified":"","gname":"","fbname":"","fbid":""},
  {"id":6,"name":"sfhfg","password":"98546","gsub":"","gemail":"","gemailVerified":"","gname":"","fbname":"","fbid":""},
  {"id":7,"name":"petrbcas","password":"44226688","gsub":"110208863124939376550","gemail":"","gemailVerified":"","gname":"","fbname":"","fbid":"121634866266320"}
]