<?xml version="1.0" encoding="UTF-8"?>
<session version="1.0">
<refactoring comment="Rename type &apos;Eh_app&apos; to &apos;Empty_app&apos;&#x0D;&#x0A;- Original project: &apos;empty-hash&apos;&#x0D;&#x0A;- Original element: &apos;Eh_app&apos;&#x0D;&#x0A;- Renamed element: &apos;Empty_app&apos;&#x0D;&#x0A;- Update references to refactored element&#x0D;&#x0A;- Update textual occurrences in comments and strings" description="Rename type &apos;Eh_app&apos;" flags="589830" id="org.eclipse.jdt.ui.rename.type" input="/src&lt;{Eh_app.java[Eh_app" matchStrategy="1" name="Empty_app" qualified="false" references="true" similarDeclarations="false" stamp="1591032763782" textual="false" version="1.0"/>
</session>